<?xml version="1.0" encoding="utf-8"?>
<!-- Generator: Adobe Illustrator 15.1.0, SVG Export Plug-In . SVG Version: 6.00 Build 0)  -->
<!DOCTYPE svg PUBLIC "-//W3C//DTD SVG 1.1//EN" "http://www.w3.org/Graphics/SVG/1.1/DTD/svg11.dtd">
<svg version="1.1" id="Layer_1" xmlns="http://www.w3.org/2000/svg" xmlns:xlink="http://www.w3.org/1999/xlink" x="0px" y="0px"
	 width="20px" height="20px" viewBox="0 0 20 20" enable-background="new 0 0 20 20" xml:space="preserve">
<path fill="#FFFFFF" d="M19,0c0.553,0,1,0.448,1,1v6c0,0.552-0.447,1-1,1s-1-0.448-1-1V3.414L11.414,10L18,16.586V13
	c0-0.552,0.447-1,1-1s1,0.448,1,1v6c0,0.553-0.447,1-1,1h-6c-0.552,0-1-0.447-1-1s0.448-1,1-1h3.586L10,11.414L3.414,18H7
	c0.552,0,1,0.447,1,1s-0.448,1-1,1H1c-0.552,0-1-0.447-1-1v-6c0-0.552,0.448-1,1-1s1,0.448,1,1v3.586L8.586,10L2,3.414V7
	c0,0.552-0.448,1-1,1S0,7.552,0,7V1c0-0.552,0.448-1,1-1h6c0.552,0,1,0.448,1,1S7.552,2,7,2H3.414L10,8.586L16.586,2H13
	c-0.552,0-1-0.448-1-1s0.448-1,1-1H19z"/>
</svg>
